…
##(skip this question)
3. Are there any missing values in the data? If so, which variables contain missing values and how many are missing for each variable?


4. How many countries are represented in the data?
249 countries

``` r
fisheries_clean %>%
  distinct(country)
```

```
## # A tibble: 249 × 1
##    country            
##    <fct>              
##  1 Afghanistan        
##  2 Albania            
##  3 Algeria            
##  4 American Samoa     
##  5 Andorra            
##  6 Angola             
##  7 Anguilla           
##  8 Antigua and Barbuda
##  9 Argentina          
## 10 Armenia            
## # ℹ 239 more rows
```
…
6. In 2023, what were the top five countries that had the highest overall catch?

``` r
fisheries_clean %>%
  select(period, catch, country) %>%
  filter(period=="2023") %>%
  group_by(country) %>%
  summarize(sum_catch=sum(catch))%>%
  arrange(desc(sum_catch))
```

```
## # A tibble: 238 × 2
##    country                  sum_catch
##    <fct>                        <dbl>
##  1 China                    13424705.
##  2 Indonesia                 7820833.
##  3 India                     6177985.
##  4 Russian Federation        5398032 
##  5 United States of America  4623694 
##  6 Peru                      3519381.
##  7 Viet Nam                  3417238.
##  8 Japan                     2904942.
##  9 Chile                     2596488.
## 10 Norway                    2546846.
## # ℹ 228 more rows
```
7. In 2023, what were the top 10 most caught species? To keep things simple, assume `common_name` is sufficient to identify species. What does `NEI` stand for in some of the common names? How might this be concerning from a fisheries management perspective?

NEI stands for not elsewhere included, meaning that multiple species are grouped together rather than reported individually. This could be concerning because this leads to deviation of data, which the reported data might be lower than actual. In fisheries management perspective, this could leads to overfishing of individual species and making inaccurate decesion on preparing its stock. 

``` r
fisheries_clean %>%
  select(period, catch, common_name) %>%
  filter(period=="2023") %>%
  group_by(common_name) %>%
  summarize(sum_catch=sum(catch))%>%
  arrange(desc(sum_catch))
```

```
## # A tibble: 2,870 × 2
##    common_name                    sum_catch
##    <fct>                              <dbl>
##  1 Marine fishes NEI               8553907.
##  2 Freshwater fishes NEI           5880104.
##  3 Alaska pollock(=Walleye poll.)  3543411.
##  4 Skipjack tuna                   2954736.
##  5 Anchoveta(=Peruvian anchovy)    2415709.
##  6 Blue whiting(=Poutassou)        1739484.
##  7 Pacific sardine                 1678237.
##  8 Yellowfin tuna                  1601369.
##  9 Atlantic herring                1432807.
## 10 Scads NEI                       1344190.
## # ℹ 2,860 more rows
```
…
```
## `summarise()` has grouped output by 'country'. You can override using the
## `.groups` argument.
```

```
## # A tibble: 13,862 × 3
## # Groups:   country [238]
##    country                  common_name                    sum_catch
##    <fct>                    <fct>                              <dbl>
##  1 China                    Marine fishes NEI               2661523.
##  2 Viet Nam                 Marine fishes NEI               2190211.
##  3 Peru                     Anchoveta(=Peruvian anchovy)    2047732.
##  4 Russian Federation       Alaska pollock(=Walleye poll.)  1893924 
##  5 United States of America Alaska pollock(=Walleye poll.)  1433538 
##  6 Bangladesh               Freshwater fishes NEI           1040470 
##  7 China                    Largehead hairtail               910275 
##  8 China                    Freshwater fishes NEI            908467 
##  9 Myanmar                  Freshwater fishes NEI            902360 
## 10 Chile                    Chilean jack mackerel            852831 
## # ℹ 13,852 more rows
```
…
